{
    "0c6c05453f80e27ae7fdb76d367d03e5": "searchstax/set-searched-fields-de",
    "185eb2f3e4beb5b93138fa3a1cbd5ff8": "acquia/get-schema_extra_types",
    "19e0994d8396516b85758e809c3d8f61": "searchstax/get-accounts",
    "1f5436bb2f0a9a748659ac7c8bcba93f": "searchstax/set-searched-fields-en",
    "1ff5ee978284c8939faca796105011e5": "searchstax/obtain-auth-token",
    "32d257d42968d0baac033271e1992d96": "searchstax/get-apps-third-account",
    "3a2a61c54cee3ea9311acaf0988bc96d": "searchstax/publish-config-en",
    "3efd6b6018bd4f4644ac200dbef68760": "searchstax/get-all-languages",
    "439285574f3688f5e25a9710fa5529fb": "acquia/get-schema",
    "459c42e66d4b52bc59e838c5fb38d093": "searchstax/enable-sort-select-en",
    "4cb933b34201cc41e8f25451ebbd9c15": "acquia/get-file-list",
    "619e0a1a361ec21ac26c0abdc8aa624b": "searchstax/publish-model-en",
    "64a37970965e1b3ba75b60a293737c1b": "searchstax/get-apps-without-token-support",
    "6c68030587ff9d299337d853810d6695": "searchstax/get-models-en",
    "6efad40fb655de95b7169721c0742ce5": "acquia/get-stopwords-en",
    "711fa278db566ac98117f67337135927": "searchstax/solr-ping",
    "78be1a6c4f5d263c870b7be4a027d188": "searchstax/set-sort-fields-de",
    "839f5fd3e6b9afd178e7e52b1895efe0": "acquia/get-synonyms-en",
    "86373d13c57073c87019ce997f460317": "searchstax/publish-config-de",
    "88cdad1a77abddad68707fed5ae588e3": "acquia/get-synonyms-de",
    "8de7ef98ba68748134a47e5d88641f4b": "acquia/get-stopwords-de",
    "916e178a41c316ce77df9a5426f08362": "searchstax/set-synonyms-de",
    "91f92f120e8c524b67714718d0394587": "searchstax/set-synonyms-en",
    "97b7c599bd4cbea11fd6aeb51f3b6efd": "searchstax/login-wrong-password",
    "a6a3d74ad7f64dcd2e44f9fda8e3115e": "searchstax/set-sort-fields-en",
    "b81d2c6bd27ea9a6d7a1ea5e540e1c31": "searchstax/set-languages",
    "cf45d911d41a58fed1adc805fcd274f0": "searchstax/enable-sort-select-de",
    "d12537cef7b89f79dc3fa41276f8ef04": "searchstax/set-result-fields-de",
    "d40c4c72bba7a7281bdba45835e1a68b": "searchstax/get-apps-with-token-support",
    "d7aec309fd46165dceaab3b32230a0cd": "searchstax/login-missing-tfa",
    "d7e8a89a08d6498d304626ff905d8032": "searchstax/get-models-de",
    "dd729538286d38d944953959b259f469": "searchstax/set-stopwords-en",
    "dd902bc126314ddfab2d92d69ee6c6b9": "searchstax/publish-model-de",
    "ecc6508225deb6421193839fa7b1c9c0": "searchstax/set-result-fields-en",
    "f145fdf44a3b0c9a0eb1d2cee4b19256": "searchstax/set-stopwords-de",
    "f182da78733a1d3e126096a3bbf96b4b": "acquia/get-schema_extra_fields"
}
