[
    {
        "id": 4686,
        "name": "Default (de)",
        "created": "2024-12-28T14:45:41Z",
        "deleted": null,
        "updated": "2024-12-28T17:20:17Z",
        "updated_by": "user@example.com",
        "ranking_enabled": false,
        "filtering_enabled": true,
        "semantic_reranker_enabled": false,
        "default": true,
        "status": "published",
        "date_published": "2024-12-28T17:20:32Z"
    }
]
